<?xml version="1.0" encoding="UTF-8" standalone="no"?>
<!-- Created with Inkscape (http://www.inkscape.org/) -->

<svg
   xmlns:dc="http://purl.org/dc/elements/1.1/"
   xmlns:cc="http://creativecommons.org/ns#"
   xmlns:rdf="http://www.w3.org/1999/02/22-rdf-syntax-ns#"
   xmlns:svg="http://www.w3.org/2000/svg"
   xmlns="http://www.w3.org/2000/svg"
   xmlns:xlink="http://www.w3.org/1999/xlink"
   xmlns:sodipodi="http://sodipodi.sourceforge.net/DTD/sodipodi-0.dtd"
   xmlns:inkscape="http://www.inkscape.org/namespaces/inkscape"
   width="128"
   height="128"
   id="svg2"
   version="1.1"
   inkscape:version="0.92.3 (2405546, 2018-03-11)"
   sodipodi:docname="authenticator-ng.svg">
  <title
     id="title2094">Authenticator NG</title>
  <defs
     id="defs4">
    <linearGradient
       id="linearGradient3771">
      <stop
         style="stop-color:#000000;stop-opacity:1;"
         offset="0"
         id="stop3773" />
      <stop
         id="stop3779"
         offset="0.5"
         style="stop-color:#555555;stop-opacity:1;" />
      <stop
         style="stop-color:#888888;stop-opacity:1;"
         offset="1"
         id="stop3775" />
    </linearGradient>
    <linearGradient
       gradientTransform="translate(-585,848.3362)"
       inkscape:collect="always"
       xlink:href="#linearGradient1243"
       id="linearGradient1245"
       x1="619.64056"
       y1="111.05671"
       x2="647.18066"
       y2="136.73352"
       gradientUnits="userSpaceOnUse" />
    <linearGradient
       inkscape:collect="always"
       id="linearGradient1243">
      <stop
         style="stop-color:#edd400;stop-opacity:1"
         offset="0"
         id="stop1239" />
      <stop
         id="stop1247"
         offset="0.64339489"
         style="stop-color:#fff394;stop-opacity:1" />
      <stop
         style="stop-color:#edd400;stop-opacity:1"
         offset="1"
         id="stop1241" />
    </linearGradient>
    <linearGradient
       gradientTransform="translate(-585,848.3362)"
       inkscape:collect="always"
       xlink:href="#linearGradient1263"
       id="linearGradient1255"
       x1="618.88928"
       y1="113.13383"
       x2="645.01514"
       y2="142.9649"
       gradientUnits="userSpaceOnUse" />
    <linearGradient
       id="linearGradient1263"
       inkscape:collect="always">
      <stop
         id="stop1257"
         offset="0"
         style="stop-color:#edd400;stop-opacity:1" />
      <stop
         style="stop-color:#fff394;stop-opacity:1"
         offset="0.19433138"
         id="stop1259" />
      <stop
         id="stop1261"
         offset="1"
         style="stop-color:#edd400;stop-opacity:1" />
    </linearGradient>
    <linearGradient
       gradientTransform="matrix(0.993624,0,0,0.993624,-581.01786,847.51626)"
       inkscape:collect="always"
       xlink:href="#linearGradient1231"
       id="linearGradient1223"
       x1="623.59412"
       y1="97.755463"
       x2="655.42896"
       y2="164.44296"
       gradientUnits="userSpaceOnUse" />
    <linearGradient
       id="linearGradient1231">
      <stop
         style="stop-color:#b9b9b9;stop-opacity:1"
         offset="0"
         id="stop1225" />
      <stop
         id="stop1227"
         offset="0.33149272"
         style="stop-color:#ebebeb;stop-opacity:1" />
      <stop
         style="stop-color:#979797;stop-opacity:1"
         offset="1"
         id="stop1229" />
    </linearGradient>
    <linearGradient
       gradientTransform="matrix(0.24792379,0,0,0.24773578,-20.423713,886.88086)"
       inkscape:collect="always"
       xlink:href="#linearGradient6111"
       id="linearGradient10119-3"
       x1="87"
       y1="79.898438"
       x2="452.5"
       y2="505.39844"
       gradientUnits="userSpaceOnUse" />
    <linearGradient
       id="linearGradient6111">
      <stop
         id="stop6113"
         offset="0"
         style="stop-color:#b9b9b9;stop-opacity:1" />
      <stop
         style="stop-color:#ebebeb;stop-opacity:1"
         offset="0.20413537"
         id="stop6115" />
      <stop
         id="stop6117"
         offset="1"
         style="stop-color:#979797;stop-opacity:1" />
    </linearGradient>
    <linearGradient
       inkscape:collect="always"
       xlink:href="#linearGradient1187"
       id="linearGradient1177-3"
       x1="308.75"
       y1="3"
       x2="246.75"
       y2="158.5"
       gradientUnits="userSpaceOnUse"
       gradientTransform="matrix(-0.24675361,0,0,0.2434802,114.12858,888.7899)" />
    <linearGradient
       id="linearGradient1187">
      <stop
         style="stop-color:#b9b9b9;stop-opacity:1"
         offset="0"
         id="stop1179" />
      <stop
         id="stop1181"
         offset="0.35998103"
         style="stop-color:#ebebeb;stop-opacity:1" />
      <stop
         style="stop-color:#cacaca;stop-opacity:1;"
         offset="0.73422062"
         id="stop1183" />
      <stop
         style="stop-color:#979797;stop-opacity:1"
         offset="1"
         id="stop1185" />
    </linearGradient>
  </defs>
  <sodipodi:namedview
     id="base"
     pagecolor="#ffffff"
     bordercolor="#666666"
     borderopacity="1.0"
     inkscape:pageopacity="0.0"
     inkscape:pageshadow="2"
     inkscape:zoom="11.2"
     inkscape:cx="55.259963"
     inkscape:cy="61.693422"
     inkscape:document-units="px"
     inkscape:current-layer="g874"
     showgrid="true"
     inkscape:window-width="2880"
     inkscape:window-height="1719"
     inkscape:window-x="-8"
     inkscape:window-y="46"
     inkscape:window-maximized="1"
     showguides="true"
     inkscape:guide-bbox="true">
    <inkscape:grid
       type="xygrid"
       id="grid2985"
       empspacing="5"
       visible="true"
       enabled="true"
       snapvisiblegridlinesonly="true" />
  </sodipodi:namedview>
  <metadata
     id="metadata7">
    <rdf:RDF>
      <cc:Work
         rdf:about="">
        <dc:format>image/svg+xml</dc:format>
        <dc:type
           rdf:resource="http://purl.org/dc/dcmitype/StillImage" />
        <dc:title>Authenticator NG</dc:title>
        <dc:creator>
          <cc:Agent>
            <dc:title>Rodney Dawes</dc:title>
          </cc:Agent>
        </dc:creator>
        <cc:license
           rdf:resource="GPLv3" />
        <dc:subject>
          <rdf:Bag>
            <rdf:li>authenticator 2fa otp two-factor auth</rdf:li>
          </rdf:Bag>
        </dc:subject>
      </cc:Work>
    </rdf:RDF>
  </metadata>
  <g
     inkscape:label="Layer 1"
     inkscape:groupmode="layer"
     id="layer1"
     transform="translate(0,-924.3622)">
    <g
       id="g2092"
       transform="matrix(0.93667572,0,0,0.93567374,19.965363,94.511628)">
      <g
         id="g874"
         transform="translate(-3.9996723e-7,-3.2062647)">
        <g
           id="g890">
          <path
             sodipodi:nodetypes="csscccccccccc"
             inkscape:connector-curvature="0"
             id="path182-1"
             d="m 47.011614,896.52039 c 36.298582,0 59.282576,26.1896 59.282576,58.49611 1e-5,32.30649 -26.541714,58.4962 -59.282576,58.4962 -32.740873,0 -59.282588,-26.18971 -59.282578,-58.4962 0.008,-15.96009 6.6240749,-31.22405 18.3152048,-42.25332 l 8.2406902,9.2589 c -9.0853639,8.68919 -14.22165337,20.63564 -14.23987851,33.12042 4.983e-5,25.52516 20.97048351,46.2175 46.83884551,46.2176 25.868362,-10e-5 46.838809,-20.69234 46.838859,-46.2176 -7e-5,-25.52518 -15.750588,-45.79712 -46.80772,-45.78784 -4.292542,0.0147 -8.375829,0.71893 -12.503628,1.8812 l -3.415175,-12.53223 c 5.212369,-1.44599 10.60093,-2.18057 16.01538,-2.18324 z"
             style="display:inline;fill:url(#linearGradient1177-3);fill-opacity:1;stroke:#888a85;stroke-width:0.98381716;stroke-miterlimit:4;stroke-dasharray:none;enable-background:new" />
          <path
             sodipodi:nodetypes="ccscccsccc"
             id="path155-2"
             d="m 75.836888,900.75884 c -0.0107,0.75848 -7.7e-4,1.27121 0.002,2.03214 0,16.41849 -12.40954,29.42396 -28.84049,29.42396 -16.43094,0 -28.655879,-13.03227 -28.812129,-29.45076 0.009,-0.74192 -3.8e-4,-1.45207 0.0489,-2.20678 -19.6183796,10.78601 -32.680502,31.33268 -32.708652,53.70754 -10e-6,33.93154 27.52781,61.43856 61.4851,61.43856 33.95728,0 61.485103,-27.50702 61.485093,-61.43856 -0.004,-22.39222 -13.029279,-42.83822 -32.659752,-53.63826 z"
             style="display:inline;fill:url(#linearGradient10119-3);fill-opacity:1;stroke:#888a85;stroke-width:0.9950943;stroke-miterlimit:4;stroke-dasharray:none;stroke-opacity:1;enable-background:new"
             inkscape:connector-curvature="0" />
          <ellipse
             ry="29.81983"
             rx="29.85088"
             cy="975.69922"
             cx="46.963951"
             id="path172-3-7"
             style="display:inline;fill:url(#linearGradient1223);fill-opacity:1;stroke-width:0.29322213;enable-background:new" />
          <ellipse
             ry="10.168771"
             rx="9.9930735"
             cy="954.7511"
             cx="6.8708878"
             id="path3892-9"
             style="display:inline;fill:#ffffff;fill-opacity:1;stroke-width:0.27808386;enable-background:new" />
          <ellipse
             ry="10.158784"
             rx="10.428091"
             cy="954.74158"
             cx="86.729706"
             id="path3892-6-3"
             style="display:inline;fill:#ffffff;fill-opacity:1;stroke-width:0.28393257;enable-background:new" />
          <ellipse
             ry="15.495132"
             rx="15.539326"
             cy="971.36963"
             cx="46.996395"
             id="path1189-3-6"
             style="display:inline;fill:url(#linearGradient1245);fill-opacity:1;stroke:url(#linearGradient1255);stroke-width:0.96921581;stroke-miterlimit:4;stroke-dasharray:none;stroke-opacity:1;enable-background:new" />
          <rect
             ry="0.20511338"
             rx="0.33532652"
             y="944.61407"
             x="6.4426107"
             height="20.306227"
             width="79.975357"
             id="rect3913-0"
             style="display:inline;fill:#ffffff;fill-opacity:1;stroke-width:0.26225936;enable-background:new" />
          <ellipse
             ry="5.8571191"
             rx="5.8723111"
             cy="954.73041"
             cx="6.9584398"
             id="path3915-6"
             style="display:inline;fill:#2e3436;fill-opacity:1;stroke-width:0.26358247;enable-background:new" />
          <ellipse
             ry="5.8800535"
             rx="5.880053"
             cy="954.76129"
             cx="23.00667"
             id="path3915-7-2"
             style="display:inline;fill:#2e3436;fill-opacity:1;stroke-width:0.26427206;enable-background:new" />
          <ellipse
             ry="5.8566127"
             rx="5.8673987"
             cy="954.74597"
             cx="38.974064"
             id="path3915-5-6"
             style="display:inline;fill:#2e3436;fill-opacity:1;stroke-width:0.26346081;enable-background:new" />
          <circle
             r="5.8561974"
             cy="954.74554"
             cx="54.966343"
             id="path3915-3-1"
             style="display:inline;fill:#2e3436;fill-opacity:1;stroke-width:0.2631999;enable-background:new" />
          <ellipse
             ry="5.8328266"
             rx="5.8435683"
             cy="954.72217"
             cx="70.978912"
             id="path3915-56-8"
             style="display:inline;fill:#2e3436;fill-opacity:1;stroke-width:0.26239076;enable-background:new" />
          <circle
             r="5.8451486"
             cy="954.75659"
             cx="87.041771"
             id="path3915-2-7"
             style="display:inline;fill:#2e3436;fill-opacity:1;stroke-width:0.26270333;enable-background:new" />
          <path
             sodipodi:nodetypes="ccccccccccccccc"
             inkscape:connector-curvature="0"
             id="rect1265"
             d="m 35.267955,969.18329 v 6.4477 l 14.946475,-0.0232 2.13521,-2.1375 2.135211,2.1375 4.270421,0.0233 v -6.44768 l -6.405632,0.0119 -3.202816,3.20625 -2.13521,-3.20625 -4.278422,-0.0103 0.008,2.14782 h -3.202816 l -0.0082,-2.14782 z"
             style="display:inline;fill:#2e3436;fill-opacity:1;stroke:none;stroke-width:0.65887189;stroke-miterlimit:4;stroke-dasharray:none;stroke-opacity:1;enable-background:new" />
        </g>
      </g>
    </g>
  </g>
</svg>
